<?xml version="1.0" encoding="UTF-8"?>
<testsuites name="jest tests" tests="1" failures="0" time="8.675">
  <testsuite name="Default Suite" errors="0" failures="0" skipped="0" timestamp="2022-08-25T16:36:31" time="8.482" tests="1">
    <testcase classname="Default Suite Untitled" name="Default Suite Untitled" time="6.627">
    </testcase>
  </testsuite>
</testsuites>